{
  "defaultSeverity": "error",
  "extends": ["tslint:recommended", "tslint-config-prettier"],
  "jsRules": {},
  "rules": {
    "semicolon": [true, "never"],
    "quotemark": [true, "single"],
    "interface-name": [true, "never-prefix"],
    "arrow-parens": [true, "ban-single-arg-parens"],
    "curly": [true, "ignore-same-line"],
    "object-literal-sort-keys": false
  },
  "rulesDirectory": []
}
